{
	"info": {
		"_postman_id": "59666323-9cd4-49e1-af94-064adca13bfc",
		"name": "alumnos",
		"schema": "https://schema.getpostman.com/json/collection/v2.1.0/collection.json"
	},
	"item": [
		{
			"name": "alumnos",
			"event": [
				{
					"listen": "test",
					"script": {
						"id": "4f95b973-7485-4536-a32a-0b4175e24ad0",
						"type": "text/javascript",
						"exec": [
							"pm.test(\"El estatus es 200\", function () {",
							"    pm.response.to.have.status(200);",
							"});",
							"",
							"",
							"",
							"",
							"pm.test(\"Content-Type is present\", function () {",
							"    pm.response.to.have.header(\"Content-Type\");",
							"});",
							"",
							"",
							"",
							"",
							"",
							"",
							"pm.test(\"Response Body\", function () {",
							"   ",
							"var jsonData = pm.response.json();",
							"var idx = jsonData.id;",
							"console.log(jsonData.length);",
							"console.log(\"=================================\");",
							"console.log(jsonData[0]['apellido']);",
							"var data = Object.assign({}, jsonData);",
							"console.log(data);",
							"//var jsonString = JSON.stringify(result).substring(17,31);",
							"//pm.environment.set(\"clusterMoid\", jsonString);",
							"   ",
							"});"
						]
					}
				}
			],
			"request": {
				"method": "GET",
				"header": [
					{
						"key": "Content-Type",
						"value": "application/json"
					}
				],
				"body": {
					"mode": "raw",
					"raw": ""
				},
				"url": {
					"raw": "{{url-api}}/alumnos/",
					"host": [
						"{{url-api}}"
					],
					"path": [
						"alumnos",
						""
					]
				}
			},
			"response": []
		},
		{
			"name": "{{url-api}}/alumnos/",
			"event": [
				{
					"listen": "test",
					"script": {
						"id": "e2ed5304-6f27-462a-be98-c29691bf33c6",
						"type": "text/javascript",
						"exec": [
							"pm.test(\"Successful POST request\", function () {",
							"    pm.expect(pm.response.code).to.be.oneOf([201,202]);",
							"});"
						]
					}
				}
			],
			"request": {
				"method": "POST",
				"header": [
					{
						"key": "Accept",
						"value": "application/json"
					},
					{
						"key": "Content-Type",
						"value": "application/json"
					}
				],
				"body": {
					"mode": "raw",
					"raw": "{\n  \"id\": 250,\n  \"nombre\": \"Carlosssss\",\n  \"apellido\": \"Martinez\",\n  \"cedula\": \"112233\",\n  \"correo\": \"carlosm@gmail.com\",\n  \"carnet\": 2001\n}"
				},
				"url": {
					"raw": "{{url-api}}/alumnos/",
					"host": [
						"{{url-api}}"
					],
					"path": [
						"alumnos",
						""
					]
				}
			},
			"response": []
		},
		{
			"name": "{{url-api}}/alumnos/1",
			"request": {
				"method": "PUT",
				"header": [
					{
						"key": "Content-Type",
						"value": "application/json"
					}
				],
				"body": {
					"mode": "raw",
					"raw": "{\n  \"id\": 250,\n  \"nombre\": \"Carlosssss\",\n  \"apellido\": \"Martinez\",\n  \"cedula\": \"112233\",\n  \"correo\": \"carlosm@gmail.com\",\n  \"carnet\": 2001\n}"
				},
				"url": {
					"raw": "{{url-api}}/alumnos/1",
					"host": [
						"{{url-api}}"
					],
					"path": [
						"alumnos",
						"1"
					]
				}
			},
			"response": []
		},
		{
			"name": "{{url-api}}/alumnos/1",
			"request": {
				"method": "DELETE",
				"header": [
					{
						"key": "",
						"value": "",
						"disabled": true
					}
				],
				"body": {
					"mode": "raw",
					"raw": ""
				},
				"url": {
					"raw": "{{url-api}}/alumnos/1",
					"host": [
						"{{url-api}}"
					],
					"path": [
						"alumnos",
						"1"
					]
				}
			},
			"response": []
		},
		{
			"name": "{{url-api}}/alumnos/1",
			"request": {
				"method": "PATCH",
				"header": [
					{
						"key": "Content-Type",
						"value": "application/json"
					}
				],
				"body": {
					"mode": "raw",
					"raw": "{\n  \"id\": 250,\n  \"nombre\": \"Carlosssss\",\n  \"apellido\": \"Martinez\",\n  \"cedula\": \"112233\",\n  \"correo\": \"carlosm@gmail.com\",\n  \"carnet\": 2001\n}"
				},
				"url": {
					"raw": "{{url-api}}/alumnos/1",
					"host": [
						"{{url-api}}"
					],
					"path": [
						"alumnos",
						"1"
					]
				}
			},
			"response": []
		},
		{
			"name": "{{url-api}}/alumnos/1",
			"request": {
				"method": "GET",
				"header": [],
				"body": {
					"mode": "raw",
					"raw": ""
				},
				"url": {
					"raw": "{{url-api}}/alumnos/1",
					"host": [
						"{{url-api}}"
					],
					"path": [
						"alumnos",
						"1"
					]
				}
			},
			"response": []
		},
		{
			"name": "{{url-api}}/instructores",
			"event": [
				{
					"listen": "test",
					"script": {
						"id": "a65e008b-4ccd-4632-9d62-0482188b99f6",
						"type": "text/javascript",
						"exec": [
							"pm.test(\"Estatus 200, respondió bien !!!\", function () {",
							"    pm.response.to.have.status(200);",
							"});",
							"",
							"pm.test(\"La respuesta esta en formato json\", function () {",
							"    // this assertion also checks if a body  exists, so the above check is not needed",
							"     pm.response.to.be.json;",
							"});",
							"",
							"pm.test(\"Content-Type esta presente\", function () {",
							"    pm.response.to.have.header(\"Content-Type\");",
							"});",
							"",
							"pm.test(\"El servicio responde en menos de un segundo\", function () {",
							"    pm.expect(pm.response.responseTime).to.be.below(1000);",
							"});",
							"",
							"",
							"pm.test(\"Response Body\", function () {",
							"   ",
							"var jsonData = pm.response.json();",
							"var idx = jsonData.id;",
							"var cantidad = jsonData.length;",
							"console.log(\"jPepe \"+cantidad);",
							"console.log(\"=================================\");",
							"console.log(jsonData[0]['apellido_instructor']);",
							"console.log(jsonData[0]['alumno'][0]['apellido']);",
							"console.log(\"+=++++++++++++++++++++++++++++++++\");",
							"for (var i = 0; i < cantidad; i ++){",
							"    ",
							"    console.log(jsonData[i]['apellido_instructor']);",
							"    ",
							"}",
							"",
							"//var data = Object.assign({}, jsonData);",
							"//console.log(data);",
							"//var jsonString = JSON.stringify(result).substring(17,31);",
							"//pm.environment.set(\"clusterMoid\", jsonString);",
							"   ",
							"});"
						]
					}
				}
			],
			"request": {
				"method": "GET",
				"header": [
					{
						"key": "Accept",
						"value": "application/json"
					}
				],
				"body": {
					"mode": "raw",
					"raw": ""
				},
				"url": {
					"raw": "{{url-api}}/instructores",
					"host": [
						"{{url-api}}"
					],
					"path": [
						"instructores"
					]
				}
			},
			"response": []
		}
	]
}